{
    "count": 82,
    "next": "https://swapi.dev/api/people/?page=2&format=json",
    "previous": null,
    "results": [
        {
            "name": "Luke Skywalker",
            "height": "172",
            "mass": "77",
            "homeworld": "https://swapi.dev/api/planets/1/",
            "created": "2014-12-09T13:50:51.644000Z",
            "edited": "2014-12-20T21:17:56.891000Z"
        },
        {
            "name": "C-3PO",
            "height": "167",
            "mass": "75",
            "homeworld": "https://swapi.dev/api/planets/1/",
            
            "created": "2014-12-10T15:10:51.357000Z",
            "edited": "2014-12-20T21:17:50.309000Z"
        }
    ]
}